id;login;password_hash;first_name;last_name;email
1;eng;$2a$10$iWNw6A1dmqcCSvhRt6ePve0UZM/aJPSLOL.Xp..HVbfvO58ixWZha;Rino;Finazzo;rino.finazzo@eng.it
2;cini;$2a$10$xKHW3x4sCb9xEWoQbY9xCOtIFqYI2H75uIreu0aiEDeGbIID4WTs6;cini;cini;claudio.ardagna@unimi.it
3;atos;$2a$10$KHjcVR5guSqSAqBPvggQU.yJfJl9tUAuY.q4m11hUbD71b8f/ONVm;atos;atos;ivan.martinez@atos.net
4;sap;$2a$10$YCpgBhUHJkVkYLwfqekBE.bU.pUiXivt4bTa6MhSgQpzJf8SkFNPC;sap;sap;cedric.herbert@sap.com
5;jot;$2a$10$yGYQQ88Uu6bphtpz/yhRX.vEItsmWJHo9qhY1hx/wNTrd9D6obpiO;jot;jot;chesco@jot-im.com
6;dta;$2a$10$fHHnTMy3WVqS70vr8f0FS.rJWWfEcQDWLSooZPv3hzsn5m4uKm9Kq;dta;dta;mariangela.lazoi@unisalento.it
7;taiger;$2a$10$WhLTyIIB32IZAZPaJruMDebChD7DpcoxXuOziK2duBITr9wDI/WgS;taiger;taiger;marcello.leida@taiger.com